bookmark =
{
	name = "GREENTIDE_NAME"
	desc = "GREENTIDE_DESC"
	date = 1444.11.11
	
	center = 829
	default = no
	
	country = B02
	country = B07
	country = B11
	country = B19
	country = B05
	country = B03
	country = B12
	country = B36
	country = B26
	country = B25
	country = B23
	country = B28
	country = B41

	easy_country = B07
	easy_country = B02
	easy_country = B25
	easy_country = B20

}