soruin={
	location=1438
	color={
		87 170 97
	}
	outgoing={
		name="ruined_sea"
		path={
			1527
		}
		control={
			1475.370000 932.910000 1513.000000 1001.000000
		}
	}
	# outgoing={
		# name="leechdens"
		# path={
			# 1527
		# }
		# control={
			# 1239.000000 1205.000000
		# }
	# }
	members={
		1306 1100 2175 2177 2176 2178 2180 2199 2179 2190 2191 2192 2186 2187 2181 2182 2197 2198 2359 2189 2188 2193 2195 2196 2201 2202 2203 2204 2205 2183 2184
	}
}

cheshoshmar={
	location=1528
	color={
		55 55 55
	}
	outgoing={
		name="trollsbay"
		path={
			1519
		}
		control={
			1239.000000 1205.000000 1288.000000 1224.000000
		}
	}
	members={
		1934 1935 1936 1933 1949 1943 1937 1938 1940 1865 1925 1939 1941 1930 1951 1942 1948 1944 1955 1947 1876 1945 1946 1870 1868 1872 1960 1130 
	}
}

trollsbay={
	location=1519
	color={
		106 206 255
	}
	outgoing={
		name="sella"
		path={
			1517
		}
		control={
			1413.000000 1327.000000
		}
	}
	outgoing={
		name="ruined_sea"
		path={
			1527
		}
		control={
			1413.000000 1228.000000
		}
	}
	members={
		# 1049 1048 1047 1869 1046 2614 1035 1036 1952 1033 1958 1038 1043 1044 1880 1040 1042 1041 1032 1030 2410 1028 1873 1031 1901 1026 1024 1023 1020 1019 1051 1018 1022 1871 1992 2449 1021 1991 1959 1012 2459 1995 1123 
		# 1953 2685 1867 1029 1027 2563 1956 2476 1025 1131 1132 1961 2609 1127 1129 1126 1128 1117 1119 2450 2538 1996 1034 1954 1045 1866 1935 1936 1933 1949 1934 1050 2741 1941 1930 1943 1937 1938 1039 1037
		
		1051 1020 2449 1021 1959 1024 1023 1132 1131 1025 1956 2476 2563 1027 1028 1873 1031 1901 1026 1953 2685 1867 1029 1032 1030 2410 1035 1036 1952 1033 1958 1037 1046 2614 1049 1048 1047 1869
		1041 1042 1954 1034 1039 1038 1043 1044 1880 1040
		1045 1866 1050 2741
	}
}

sella={
	location=1517
	color={
		213 54 36
	}
	outgoing={
		name="dalaire"
		path={
			1016 1500
		}
		control={
			1607.000000 1341.000000 1591.000000 1407.000000 
		}
	}
	members={
		1124 2548 1110 1111 1996 2459 1995 1123 1126 1128 1129 1127 1961 2609 1121 2437 1998 1120 1999 2283 1991 1019 1022 1871 1018 1992 1117 2538 2450 1116 1114 1012 1119
	}
}

ruined_sea={
	location=1527
	color={
		73 124 154
	}
	outgoing={
		name="dalaire"
		path={
			1519 1013
		}
		control={
			1632.000000 1100.000000 1651.000000 1181.000000 1614.000000 1275.000000 1618.000000 1336.000000 1591.000000 1407.000000
		}
	}
	outgoing={
		name="banished_isles"
		path={
			1504
		}
		control={
			1694.000000 1080.000000 1961.000000 1036.000000 2040.000000 1173.000000
		}
	}
	members={
		1075 1076 1077 1078 1079 1080 1082 1081 1083 1084 1085 1086 1087 1101 1103 1088 1089 1090 1091 1092 1093 1096 1094 1095 1097 1098 1099 1102 1104 1105 1106 1053 1054 1052 
		1006 1007 1008 1055 1058 1059 1062 1063 1072 1073 1074
		2125 2091 2137 1221 2788
		2135 1017
	}
}

dalaire={
	location=1500
	color={
		73 96 154
	}
	outgoing={
		name="westport"
		path={
			112 85
		}
		control={
			1797.000000 1435.000000 2189.000000 1490.000000 2417.000000 1466.000000
		}
	}
	outgoing={
		name="banished_isles"
		path={
			223 221 1295 1296 1297 
		}
		control={
			1769.000000 1378.000000 1889.000000 1336.000000
		}
	}
	members={
		926 927 925 924 949 950 951 1016 1015 1014 1013 2787 1205 1202 1203 1204 1208 1207 1210 1209 1212 1211 1113 2557 1115 2208
	}
}

banished_isles={
	location=1504
	color={
		202 117 32
	}
	outgoing={
		name="akan"
		path={
			1300 402
		}
		control={
			2068.000000 1211.000000 2213.000000 1211.000000 2346.000000 1251.000000 2508.000000 1266.000000 2690.000000 1376.000000
		}
	}
	outgoing={
		name="bay_of_wines"
		path={
			1504
		}
		control={
			2068.000000 1211.000000 2213.000000 1211.000000 2346.000000 1251.000000 2508.000000 1266.000000 2673.000000 1384.000000 2731.000000 1430.000000
		}
	}
	members={
		938 933 932 934 935 936 937 942 939 941 940 931 930 929 928 943 944 945 946 947 948 1002 1003 1004 1005 1011 1010 1009 1056 1057 1061 1060 1070 1069 1068 1067 1066 1065 1064 1071
		2126 2230 2828 2124 2093 1108 1107
	}
}

marrhold={
	location=888
	color={
		167 165 135
	}
	inland=yes
	outgoing={
		name="marches"
		path={
			811
		}
		control={
			3157.000000 1592.000000
		}
	}
	outgoing={
		name="castonath"
		path={
			840
		}
		control={
			3150.000000 1630.000000
		}
	}
	members={
		895 896 897 893 894 883 891 888 889 890 892 886 887 885 875 876 877 856 857
	}
}

upper_alen={
	location=872
	color={
		98 101 167
	}
	inland=yes
	outgoing={
		name="castonath"
		path={
			858 865
		}
		control={
			3151.000000 1667.000000
		}
	}
	members={
		860 861 858 864 869 865 866 874 873 868 870 863 872 878 879 867 871 880 881 882 884 859 862
	}
}

castonath={
	location=840
	color={
		222 222 222
	}
	inland=yes
	outgoing={
		name="middle_alen"
		path={
			831 832 833 754
		}
		control={
			3059.000000 1697.000000 3034.000000 1724.000000 3006.000000 1716.000000
		}
	}
	outgoing={
		name="silvermere"
		path={
			785
		}
		control={
			3095.000000 1651.000000
		}
	}
	members={
		837 839 754 842 747 848 840 843 845 847 841 853 855 746 743 850 849 846 852 851 844 854 755 836 828 830 831 832 833 827
	}
}

silvermere={
	location=785
	color={
		200 200 255
	}
	inland=yes
	outgoing={
		name="ibevar"
		path={
			357 352 349
		}
		control={
			3014.000000 1614.000000
		}
	}
	outgoing={
		name="middle_alen"
		path={
			729
		}
		control={
			3024.000000 1646.000000 3010.000000 1686.000000
		}
	}
	outgoing={
		name="marches"
		path={
			811 817
		}
		control={
			3071.000000 1594.000000
		}
	}
	members={
		767 756 834 835 829 821 825 823 820 809 783 788 790 794 795 796 785 786 787 789 784 764 766 765 792 781 782 772 773 774 768 769 770 771 776 780 779 778 777 775 422
	}
}

marches={
	location=811
	color={
		230 216 166
	}
	inland=yes
	outgoing={
		name="gablaine"
		path={
			1303
		}
		control={
			3102.000000 1562.000000 3077.000000 1540.000000
		}
	}
	members={
		802 803 805 807 791 797 798 800 808 806 812 811 815 814 813 810 816 817 818 819 824 826 799 801 793 822
	}
}


middle_alen={
	location=229
	color={
		20 105 123
	}
	inland=yes
	outgoing={
		name="lower_alen"
		path={
			225 221
		}
		control={
			2964.000000 1722.000000 2952.000000 1737.000000 2927.000000 1751.000000 2896.000000 1738.000000
		}
	}
	outgoing={
		name="bay_of_chills"
		path={
			1256 701
		}
		control={
			2959.000000 1737.000000
		}
	}
	members={
		229 230 232 231 710 725 726 729 749 730 732 727 750 728 751 753 758 759 761 763 762 741 745 742 744 748 760 757
	}
}

ibevar={
	location=357
	color={
		154 237 233
	}
	inland=yes
	outgoing={
		name="lower_alen"
		path={
			239
		}
		control={
			2929.000000 1669.000000
		}
	}
	outgoing={
		name="esmaraine"
		path={
			266
		}
		control={
			2934.000000 1580.000000
		}
	}
	members={
		261 351 352 360 359 353 354 355 356 361 350 253 236 252 349 238 244 334 250 256 342 258 357 358 257 248 245 246 247
	}
}

vrorensbay={
	location=1286
	color={
		209 209 255
	}
	outgoing={
		name="bay_of_chills"
		path={
			1256
		}
		control={
			2998.000000 1815.000000
		}
	}
	outgoing={
		name="redgarhavn"
		path={
			1289
		}
		control={
			3009.000000 1861.000000
		}
	}
	members={
		734 735 736 737 738 739 740 987 988 989 990 991 992
		
	}
}

redgarhavn={
	location=1289
	color={
		222 87 87
	}
	outgoing={
		name="serpentshead"
		path={
			1322 696
		}
		control={
			2917.000000 1883.000000 2877.000000 1856.000000 2847.000000 1851.000000 2818.000000 1855.000000
		}
	}
	members={
		972 973 974 975 976 977 978 979 980 981 982 983 984 985 986 2829 2830 2831 2832 2833 2834 2835
	}
}

bay_of_chills={
	location=1256
	color={
		158 209 209
	}
	outgoing={
		name="serpentshead"
		path={
			1322 696
		}
		control={
			2953.000000 1794.000000 2944.000000 1820.000000 2893.000000 1846.000000 2847.000000 1851.000000 2818.000000 1855.000000
		}
	}
	members={
		702 723 705 704 706 722 721 709 712 701 713 707 711 716 714 715 718 719 717 733 720 731 752
	}
}

sidaett={
	location=967
	color={
		76 76 209
	}
	outgoing={
		name="serpentshead"
		path={
			1322 696
		}
		control={
			2850.000000 1931.000000 2829.000000 1908.000000 2826.000000 1874.000000
		}
	}
	members={
		957 958 961 962 963 964 965 966 967 968 969 970 971 998
	}
}

serpentshead={
	location=1322
	color={
		186 223 145
	}
	outgoing={
		name="dragon_coast"
		path={
			1294 177
		}
		control={
			2778.000000 1866.000000 2723.000000 1837.000000 2681.730000 1780.690000 2549.000000 1754.000000 2560.000000 1689.000000 2621.000000 1676.000000
		}
	}
	members={
		188 190 199 198 191 345 194 192 193 197 200 694 695 708 698 697 696 699 700 703 724
		952 953 954 955 956 997 959 960 1000 993 994 995 996 999
	}
}

lower_alen={
	location=222
	color={
		64 95 184 
	}
	inland=yes
	outgoing={
		name="dameshead"
		path={
			216 151
		}
		control={
			2846.000000 1668.000000
		}
	}
	members={
		224 237 239 243 338 221 222 223 341 346 337 220 339 225 240 226 340 217 218 201 202 203 204 195 196 227 228 241 343 344 242
	}
}

dragon_coast={
	location=1294
	color={
		68 97 136 
	}
	outgoing={
		name="viswall"
		path={
			66 63 
		}
		control={
			2714.000000 1663.000000 2693.000000 1617.000000 
		}
	}
	outgoing={
		name="westport"
		path={
			112 85
		}
		control={
			2620.000000 1599.000000 2555.000000 1506.000000 
		}
	}
	members={
		170 167 145 148 144 169 146 177 178 176 175 172 173 174 181 171 179 180 182 184 183 185 187 186 189 129 142 138 140 122 1294 1001
	}
}

viswall={
	location=166
	color={
		169 127 74 
	}
	inland=yes
	outgoing={
		name="dameshead"
		path={
			216 151 
		}
		control={
			2747.000000 1591.000000 2770.000000 1608.000000 2793.000000 1613.000000
		}
	}
	outgoing={
		name="westport"
		path={
			112 85
		}
		control={
			2718.000000 1583.000000 2678.000000 1581.000000 2627.000000 1553.000000 2566.000000 1502.000000
		}
	}
	members={
		63 66 131 132 136 162 163 161 164 160 159 166 139 137 133 158 152 135 134 7 348 206 210 103 147 165 149 76 12 150 211 213 117 118 71 141 143
	}
}

westport={
	location=1263
	color={
		191 87 197 
	}
	outgoing={
		name="bay_of_wines"
		path={
			223 221 1295 1296 1297 
		}
		control={
			2626.000000 1462.000000 2670.000000 1401.000000 2731.000000 1430.000000 
		}
	}
	members={
		58 102 104 105 78 126 128 123 124 125 96 98 75 92 107 87 119 112 110 111 113 121 120 115 116 106 83 82 90 100 91 85 88 99 93 94 127 1263 130 1
	}
}

bay_of_wines={
	location=1292
	color={
		142 65 92 
	}
	outgoing={
		name="anbenncost"
		path={
			8 52
		}
		control={
			2759.000000 1446.000000 2802.000000 1429.000000 2822.000000 1452.000000 2814.000000 1474.020000 2820.000000 1496.000000
		}
	}
	members={
		49 41 101 97 81 84 86 38 72 73 59 33 32 34 40 64 62 70 77 114 108 79 80 95 67 74 68 61 69 89 20 31 47 48 
	}
}

gablaine={
	location=433
	color={
		154 154 154
	}
	inland=yes
	outgoing={
		name="flooded_coast"
		path={
			1303
		}
		control={
			3040.000000 1547.000000 3061.000000 1491.000000
		}
	}
	outgoing={
		name="arannen"
		path={
			904
		}
		control={
			3009.000000 1558.000000 2991.330000 1509.800000
		}
	}
	members={
		424 427 428 426 425 430 441 440 439 438 431 432 433 434 435 437 436 429 804 443 442 
	}
}

flooded_coast={
	location=1303
	color={
		16 135 99
	}
	outgoing={
		name="eborthil"
		path={
			380
		}
		control={
			2995.000000 1425.000000 2966.160000 1383.080000
		}
	}
	outgoing={
		name="arannen"
		path={
			904
		}
		control={
			2997.000000 1454.000000 
		}
	}
	members={
		446 450 445 451 447 448 449 409 410 411 412 413 416 420 452 506 507 508 509 510 511 512 513 514 515 516 921 922 444 421
	}
}

arannen={
	location=318
	color={
		51 69 168
	}
	inland=yes
	outgoing={
		name="esmaraine"
		path={
			266 901
		}
		control={
			2909.000000 1528.000000
		}
	}
	outgoing={
		name="eborthil"
		path={
			8 52
		}
		control={
			2928.000000 1442.000000 2958.000000 1409.020000 2957.000000 1380.020000
		}
	}
	outgoing={
		name="anbenncost"
		path={
			8 52
		}
		control={
			2904.000000 1498.000000 2866.000000 1484.000000 2842.000000 1496.000000 2822.000000 1501.000000
		}
	}
	members={
		303 304 305 306 294 300 332 295 307 318 907 903 312 326 321 323 324 322 325 904 418 419 313 316 317 319 315 913 414 415 327 298 898 906 299 918 919 417 920 579 923
	}
}

esmaraine={
	location=266
	color={
		187 128 165
	}
	inland=yes
	outgoing={
		name="dameshead"
		path={
			266
		}
		control={
			2896.000000 1596.000000
		}
	}
	members={
		266 254 262 260 267 333 274 911 308 309 302 901 909 273 272 271 900 280 916 268 263 270 311 314 320 310 912 423 301 297 902 279 44 576 917
	}
}

akan={
	location=1300
	color={
		204 204 204 
	}
	outgoing={
		name="eborthil"
		path={
			380 365 382
		}
		control={
			2836.000000 1348.000000 2878.000000 1353.000000
		}
	}
	members={
		402 389 388 387 386 407 385 384 406 397 398 396 383 395 401 392 393 390 391 400
	}
}

harpylen={
	location=665
	color={
		221 117 182
	}
	inland=yes
	outgoing={
		name="ovdal_tungr"
		path={
			526
		}
		control={
			3336.000000 1404.000000 3262.000000 1379.000000 3222.000000 1351.020000
		}
	}
	outgoing={
		name="bay_of_mirrors"
		path={
			1310 588
		}
		control={
			3343.000000 1324.000000 3312.000000 1307.020000 3292.000000 1275.020000
		}
	}
	outgoing={
		name="bulwar"
		path={
			601
		}
		control={
			3434.000000 1362.000000 3425.000000 1330.000000 3416.000000 1304.000000 3387.000000 1310.000000
		}
	}
	members={
		653 655 656 660 663 661 664 665 666 667 668 669 671 670 672 673 674 675 676 677 678 654 652 659 662 658 657
	}
}

ovdal_tungr={
	location=1312
	color={
		77  198  223
	}
	outgoing={
		name="bay_of_mirrors"
		path={
			1311
		}
		control={
			3203.500000 1337.000000
		}
	}
	outgoing={
		name="eborthil"
		path={
			1313 1307
		}
		control={
			3061.000000 1361.000000  3006.000000 1384.000000
		}
	}
	members={
		517 518 519 520 521 522 523 525 526 527 528 529 530 531 532 533 534 535 536 537 538 539 540 541 542 543 544 545 581 547 550 650 649 651 548
	}
}

sareyand={
	location=638
	color={
		245 207 137
	}
	inland=yes
	outgoing={
		name="bulwar"
		path={
			601
		}
		control={
			3483.000000 1282.000000 3428.000000 1277.020000 3389.000000 1300.000000
		}
	}
	members={
		625 626 627 629 630 632 633 631 634 636 637 635 639 638 640 641 642 643 644 647 648 645 646 558 585
		681 684 583 571 566 # should be in their own later
	}
}

bulwar={
	location=601
	color={
		248 193 92
	}
	inland=yes
	outgoing={
		name="brasan"
		path={
			565 1398
		}
		control={
			3344.000000 1287.000000 3298.000000 1249.020000 3261.000000 1232.020000
		}
	}
	outgoing={
		name="bay_of_mirrors"
		path={
			1310 588
		}
		control={
			3295.000000 1275.000000 
		}
	}
	members={
		594 593 590 591 603 610 599 601 602 604 611 600 605 606 607 612 690 628 624 608 613 609 614 615 616 617 622 621 620 623 618 619
	}
}

brasan={
	location=1309
	color={
		147 207 236
	}
	outgoing={
		name="mothers_sorrow"
		path={
			1305 475 463
		}
		control={
			3215.000000 1236.000000 3167.000000 1268.020000 3111.000000 1245.020000
		}
	}
	members={
		496 495 505 497 498 499 500 501 578 573 564 565 567 572 561 570 568 584 679 680 682 683 685 597 596 598 693 692 686 687 691 688 689 595
	}
}

golkora={
	location=481
	color={
		180 137 50
	}
	inland = yes
	outgoing={
		name="mothers_sorrow"
		path={
			1305 475 463
		}
		control={
			3179.000000 1054.000000 3143.000000 1091.020000 3118.770000 1155.250000 3086.000000 1190.000000
		}
	}
	members={
		479 480 481 482 483 484 486 487 485 488 489 
	}
}

mothers_sorrow={
	location=1305
	color={
		255 128 64
	}
	outgoing={
		name="eborthil"
		path={
			1296 380
		}
		control={
			3016.000000 1290.000000 2962.000000 1307.000000 2934.000000 1331.020000 2900.000000 1346.000000 2896.000000 1357.000000
		}
	}
	members={
		455 456 457 460 461 462 503 463 546 464 466 467 468 465 470 490 492 493 494 469 471 472 473 491 502 474 592 475 476 477 478 504
	}
}

eborthil={
	location=1296
	color={
		214 161 50
	}
	outgoing={
		name="anbenncost"
		path={
			8 52
		}
		control={
			2862.000000 1378.000000 2809.000000 1408.020000 2822.000000 1452.020000 2814.000000 1474.020000 2820.000000 1496.000000
		}
	}
	members={
		39 373 374 380 369 35 379 36 377 375 376 378 370 371 288 290 291 292 405 382 403 399 404 381 453 458 365 367 368 372 366 408 362 363 364 293 289 454 459 838
	}
}

anbenncost={
	location=1270
	color={
		84 162 167 
	}
	outgoing={
		name="dameshead"
		path={
			1252 216 151 234
		}
		control={
			2796.000000 1518.000000 2787.000000 1524.000000 2793.000000 1554.000000 2836.000000 1575.000000
		}
	}
	members={
		10 13 15 17 28 23 24 27 26 43 46 14 42 57 11 8 168 4 2 9 50 51 45 25 276 330 37 277 29 52 53 54 55 56 283 285 286 331 287 282 284 329 296 278 328 281 1270 16 21 30 22 19 910 899 569 394 109 587
	}
}

dameshead={
	location=1252
	color={
		201 185 131 
	}
	members={
		216 251 235 219 249 233 234 214 215 336 212 18 153 154 156 157 65 151 60 155 205 208 3 5 275 269 265 259 255 264 207 209 347 905 915 914 908 335 6 575 524
	}
	end=yes
}

bay_of_mirrors={
	location=1310
	color={
		207  98  123
	}
	members={
		549 551 552 553 554 555 556 557 559 560 562 563 574 577 580 586 588 589 582
	}
}
