From;To;Type;Through;start_x;start_y;stop_x;stop_y;Comment
2;276;sea;1272;2848;1531;2854;1527;Eargate-Damescross
168;11;sea;1271;2803;1532;-1;-1;Auraire-Damesteeth
11;13;sea;1271;-1;-1;-1;-1;Damesteeth-Toothsend
39;379;sea;1296;2951;1377;2954;1373;
379;36;sea;1296;2957;1361;2958;1358;
36;35;sea;1296;2947;1356;2943;1359;
375;376;sea;1280;-1;-1;-1;-1;
46;14;sea;1293;-1;-1;-1;-1;
14;51;sea;1293;-1;-1;-1;-1;
146;145;sea;1299;-1;-1;-1;-1;
171;146;sea;1299;-1;-1;-1;-1;
197;198;sea;1321;2781;1799;2773;1803;
197;199;sea;1320;-1;-1;-1;-1;
451;445;sea;1303;-1;-1;-1;-1;Nathalaire
451;447;sea;1303;-1;-1;-1;-1;Nathalaire
495;494;sea;1308;-1;-1;-1;-1;Elizna
581;523;sea;1308;-1;-1;-1;-1;Yametses
926;927;sea;1674;-1;-1;-1;-1;
927;925;sea;1674;-1;-1;-1;-1;
1078;1077;sea;1675;-1;-1;-1;-1;
1081;1080;sea;1533;-1;-1;-1;-1;
1080;1079;sea;1533;-1;-1;-1;-1;
1085;1086;sea;1532;-1;-1;-1;-1;
1086;1087;sea;1532;-1;-1;-1;-1;
1087;1101;sea;1532;-1;-1;-1;-1;
1101;1103;sea;1532;-1;-1;-1;-1;
1103;1088;sea;1532;-1;-1;-1;-1;
1088;1089;sea;1514;-1;-1;-1;-1;
1089;1091;sea;1514;-1;-1;-1;-1;
1091;1090;sea;1514;-1;-1;-1;-1;
1091;1092;sea;1514;-1;-1;-1;-1;
1093;1096;sea;1531;-1;-1;-1;-1;
1095;1097;sea;1529;-1;-1;-1;-1;
1105;1106;sea;1670;-1;-1;-1;-1;
1052;1053;sea;1669;-1;-1;-1;-1;
1053;1054;sea;1528;-1;-1;-1;-1;
1035;1036;sea;4224;-1;-1;-1;-1;
1020;1051;sea;1519;-1;-1;-1;-1;
1063;1072;sea;1513;-1;-1;-1;-1;
1072;1073;sea;1513;-1;-1;-1;-1;
1061;1059;sea;1509;-1;-1;-1;-1;
1059;1062;sea;1509;-1;-1;-1;-1;
698;708;sea;1322;-1;-1;-1;-1;
708;952;sea;1322;-1;-1;-1;-1;
952;953;sea;1322;-1;-1;-1;-1;
708;953;sea;1322;-1;-1;-1;-1;
952;954;sea;1322;-1;-1;-1;-1;
953;997;sea;1322;-1;-1;-1;-1;
996;999;sea;1436;-1;-1;-1;-1;
704;707;sea;1256;-1;-1;-1;-1;
707;713;sea;1256;-1;-1;-1;-1;
580;582;sea;1311;-1;-1;-1;-1;
932;935;sea;1504;-1;-1;-1;-1;
935;934;sea;1504;-1;-1;-1;-1;
1973;1987;sea;1695;-1;-1;-1;-1;
1751;2799;sea;1492;-1;-1;-1;-1;
1248;2801;sea;1492;-1;-1;-1;-1;
1246;1234;sea;1485;-1;-1;-1;-1;
1234;1245;sea;1485;-1;-1;-1;-1;
1234;1230;sea;1485;-1;-1;-1;-1;
1227;1244;sea;1493;-1;-1;-1;-1;
1227;1228;sea;1493;-1;-1;-1;-1;
1227;1232;sea;1493;-1;-1;-1;-1;
1228;1231;sea;1493;-1;-1;-1;-1;
1229;2789;sea;1495;-1;-1;-1;-1;
1222;2789;sea;1495;-1;-1;-1;-1;
2789;2790;sea;1495;-1;-1;-1;-1;
2790;2791;sea;1495;-1;-1;-1;-1;
2068;2155;sea;1559;-1;-1;-1;-1;
2155;2153;sea;1682;-1;-1;-1;-1;
2151;2152;sea;1560;-1;-1;-1;-1;
2166;2169;sea;1687;-1;-1;-1;-1;
2175;1306;sea;1537;-1;-1;-1;-1;
1942;1104;sea;1528;-1;-1;-1;-1;
1036;1952;sea;4224;-1;-1;-1;-1;
2599;2723;sea;1712;-1;-1;-1;-1;
2723;2600;sea;1712;-1;-1;-1;-1;
2600;2720;sea;1712;-1;-1;-1;-1;
2721;2720;sea;1712;-1;-1;-1;-1;
2721;2722;sea;1712;-1;-1;-1;-1;
2206;2231;sea;1511;-1;-1;-1;-1;
2233;2231;sea;1511;-1;-1;-1;-1;
2233;2227;sea;1580;-1;-1;-1;-1;
2233;2232;sea;1535;-1;-1;-1;-1;
2234;2232;sea;1535;-1;-1;-1;-1;
2222;2232;sea;1535;-1;-1;-1;-1;
2222;2229;sea;1536;-1;-1;-1;-1;
2228;2229;sea;1536;-1;-1;-1;-1;
2228;2213;sea;1530;-1;-1;-1;-1;
2221;2229;sea;1536;-1;-1;-1;-1;
2738;2739;sea;1709;-1;-1;-1;-1;
987;736;sea;1286;-1;-1;-1;-1;Isle Vroren
735;736;sea;1286;-1;-1;-1;-1;Isle Vroren
1268;1258;canal;1775;-1;-1;-1;-1;kiel_canal
1548;1515;canal;835;-1;-1;-1;-1;panama_canal
1328;1316;canal;363;-1;-1;-1;-1;suez_canal
31;4152;lake;4139;3232;1827;3235;1835;Savolax - Kuusamo
-1;-1;;-1;-1;-1;-1;-1;-1;
